{
    "records": [
    	{
            "dataType":"java.lang.String",
            "renderer" : ["hyperlink", "bold","long-text","big-text"],
            "editor" : ["short-text","long-text"]
        },
        {
            "dataType":"java.util.Date",
            "renderer" : ["date-and-day", "french-date", "reversed-french-date"],
            "editor" : ["date"]
        },
		{
            "dataType":"java.lang.Integer",
            "renderer" : ["int"],
            "editor" : ["int"]
        },
        {
            "dataType":"java.lang.Long",
            "renderer" : ["int"],
            "editor" : ["int"]
        },
        {
            "dataType":"java.lang.Double",
            "renderer" : [],
            "editor" : ["float"]
        },
        {
            "dataType":"java.lang.Boolean",
            "renderer" : ["boolean"],
            "editor" : ["boolean"]
        },
        {
            "dataType":"Category",
            "renderer" : ["Category"],
            "editor" : []
        },
        {
            "dataType":"Project",
            "renderer" : ["Project"],
            "editor" : []
        },
        {
            "dataType":"Sequence",
            "renderer" : ["Sequence"],
            "editor" : []
        },
        {
            "dataType":"Group",
            "renderer" : ["Group"],
            "editor" : []
        },
        {
            "dataType":"java.util.List<fr.hd3d.model.persistence.IPerson>",
            "renderer" : ["Person"],
            "editor" : []
        },
        {
            "dataType":"java.util.List<fr.hd3d.model.persistence.IResourceGroup>",
            "renderer" : ["Group"],
            "editor" : []
        },
        {
            "dataType":"java.util.List<fr.hd3d.model.persistence.IProject>",
            "renderer" : ["Project"],
            "editor" : []
        },
        {
            "dataType":"Person",
            "renderer" : ["Person"],
            "editor" : ["Person"]
        },
        {
            "dataType":"person",
            "renderer" : ["Person"],
            "editor" : ["Person"]
        }
    ]
}